…
## What is mean total number of steps taken per day?
* group data by date
* summarize total steps per day and display result
* plot a histogram of total steps per day and display result
* calculate the mean and median steps per day and display result


```r
bydate <- group_by(data, date)
totalperday <- summarize(bydate, total_steps_per_day = sum(steps, na.rm = TRUE))
totalperday
```

```
## # A tibble: 61 x 2
##    date       total_steps_per_day
##    <date>                   <int>
##  1 2012-10-01                   0
##  2 2012-10-02                 126
##  3 2012-10-03               11352
##  4 2012-10-04               12116
##  5 2012-10-05               13294
##  6 2012-10-06               15420
##  7 2012-10-07               11015
##  8 2012-10-08                   0
##  9 2012-10-09               12811
## 10 2012-10-10                9900
## # ... with 51 more rows
```
…
